PCBNEW-LibModule-V1  2021-06-04 17:17:48
# encoding utf-8
Units mm
$INDEX
SOP65P490X110-8N
$EndINDEX
$MODULE SOP65P490X110-8N
Po 0 0 0 15 60ba522c 00000000 ~~
Li SOP65P490X110-8N
Cd ADP1613ARMZ-R7
Kw Integrated Circuit
Sc 0
At SMD
AR 
Op 0 0 0
T0 0 0 1.27 1.27 0 0.254 N V 21 N "IC**"
T1 0 0 1.27 1.27 0 0.254 N I 21 N "SOP65P490X110-8N"
DS -3.2 -1.85 3.2 -1.85 0.05 24
DS 3.2 -1.85 3.2 1.85 0.05 24
DS 3.2 1.85 -3.2 1.85 0.05 24
DS -3.2 1.85 -3.2 -1.85 0.05 24
DS -1.5 -1.5 1.5 -1.5 0.1 24
DS 1.5 -1.5 1.5 1.5 0.1 24
DS 1.5 1.5 -1.5 1.5 0.1 24
DS -1.5 1.5 -1.5 -1.5 0.1 24
DS -1.5 -0.85 -0.85 -1.5 0.1 24
DS -1.15 -1.5 1.15 -1.5 0.2 21
DS 1.15 -1.5 1.15 1.5 0.2 21
DS 1.15 1.5 -1.15 1.5 0.2 21
DS -1.15 1.5 -1.15 -1.5 0.2 21
DS -2.95 -1.55 -1.5 -1.55 0.2 21
$PAD
Po -2.225 -0.975
Sh "1" R 0.45 1.45 0 0 900
At SMD N 00888000
Ne 0 ""
$EndPAD
$PAD
Po -2.225 -0.325
Sh "2" R 0.45 1.45 0 0 900
At SMD N 00888000
Ne 0 ""
$EndPAD
$PAD
Po -2.225 0.325
Sh "3" R 0.45 1.45 0 0 900
At SMD N 00888000
Ne 0 ""
$EndPAD
$PAD
Po -2.225 0.975
Sh "4" R 0.45 1.45 0 0 900
At SMD N 00888000
Ne 0 ""
$EndPAD
$PAD
Po 2.225 0.975
Sh "5" R 0.45 1.45 0 0 900
At SMD N 00888000
Ne 0 ""
$EndPAD
$PAD
Po 2.225 0.325
Sh "6" R 0.45 1.45 0 0 900
At SMD N 00888000
Ne 0 ""
$EndPAD
$PAD
Po 2.225 -0.325
Sh "7" R 0.45 1.45 0 0 900
At SMD N 00888000
Ne 0 ""
$EndPAD
$PAD
Po 2.225 -0.975
Sh "8" R 0.45 1.45 0 0 900
At SMD N 00888000
Ne 0 ""
$EndPAD
$EndMODULE SOP65P490X110-8N
$EndLIBRARY
