PCBNEW-LibModule-V1  
# encoding utf-8
Units mm
$INDEX
SOP65P490X110-8N
$EndINDEX
$MODULE SOP65P490X110-8N
Po 0 0 0 15 00000000 00000000 ~~
Li SOP65P490X110-8N
Cd 
Sc 00000000
At SMD
Op 0 0 0
.SolderMask 0
.SolderPaste 0
T0 -0.61 -2.412 1 1 0 0.05 N V 21 "SOP65P490X110-8N"
T1 0.025 2.412 1 1 0 0.05 N V 21 "VAL**"
DC -3.705 -1.475 -3.605 -1.475 0.2 21
DC -3.705 -1.475 -3.605 -1.475 0.2 27
DS -1.6 -1.6 1.6 -1.6 0.127 27
DS -1.6 1.6 1.6 1.6 0.127 27
DS -1.6 -1.6 1.6 -1.6 0.127 21
DS -1.6 1.6 1.6 1.6 0.127 21
DS -1.6 -1.6 -1.6 1.6 0.127 27
DS 1.6 -1.6 1.6 1.6 0.127 27
DS -3.18 -1.85 3.18 -1.85 0.05 26
DS -3.18 1.85 3.18 1.85 0.05 26
DS -3.18 -1.85 -3.18 1.85 0.05 26
DS 3.18 -1.85 3.18 1.85 0.05 26
$PAD
Sh "1" R 1.55 0.5 0 0 0
At SMD N 00088000
.SolderMask 0
.SolderPaste 0
Ne 0 ""
Po -2.155 -0.975
$EndPAD
$PAD
Sh "2" R 1.55 0.5 0 0 0
At SMD N 00088000
.SolderMask 0
.SolderPaste 0
Ne 0 ""
Po -2.155 -0.325
$EndPAD
$PAD
Sh "3" R 1.55 0.5 0 0 0
At SMD N 00088000
.SolderMask 0
.SolderPaste 0
Ne 0 ""
Po -2.155 0.325
$EndPAD
$PAD
Sh "4" R 1.55 0.5 0 0 0
At SMD N 00088000
.SolderMask 0
.SolderPaste 0
Ne 0 ""
Po -2.155 0.975
$EndPAD
$PAD
Sh "5" R 1.55 0.5 0 0 0
At SMD N 00088000
.SolderMask 0
.SolderPaste 0
Ne 0 ""
Po 2.155 0.975
$EndPAD
$PAD
Sh "6" R 1.55 0.5 0 0 0
At SMD N 00088000
.SolderMask 0
.SolderPaste 0
Ne 0 ""
Po 2.155 0.325
$EndPAD
$PAD
Sh "7" R 1.55 0.5 0 0 0
At SMD N 00088000
.SolderMask 0
.SolderPaste 0
Ne 0 ""
Po 2.155 -0.325
$EndPAD
$PAD
Sh "8" R 1.55 0.5 0 0 0
At SMD N 00088000
.SolderMask 0
.SolderPaste 0
Ne 0 ""
Po 2.155 -0.975
$EndPAD
$EndMODULE SOP65P490X110-8N
