(module "SOP65P490X110-8N" (layer F.Cu)
  (descr "ADP1613ARMZ-R7")
  (tags "Integrated Circuit")
  (attr smd)
  (fp_text reference IC** (at 0 0) (layer F.SilkS)
    (effects (font (size 1.27 1.27) (thickness 0.254)))
  )
  (fp_text user %R (at 0 0) (layer F.Fab)
    (effects (font (size 1.27 1.27) (thickness 0.254)))
  )
  (fp_text value "SOP65P490X110-8N" (at 0 0) (layer F.SilkS) hide
    (effects (font (size 1.27 1.27) (thickness 0.254)))
  )
  (fp_line (start -3.2 -1.85) (end 3.2 -1.85) (layer F.CrtYd) (width 0.05))
  (fp_line (start 3.2 -1.85) (end 3.2 1.85) (layer F.CrtYd) (width 0.05))
  (fp_line (start 3.2 1.85) (end -3.2 1.85) (layer F.CrtYd) (width 0.05))
  (fp_line (start -3.2 1.85) (end -3.2 -1.85) (layer F.CrtYd) (width 0.05))
  (fp_line (start -1.5 -1.5) (end 1.5 -1.5) (layer F.Fab) (width 0.1))
  (fp_line (start 1.5 -1.5) (end 1.5 1.5) (layer F.Fab) (width 0.1))
  (fp_line (start 1.5 1.5) (end -1.5 1.5) (layer F.Fab) (width 0.1))
  (fp_line (start -1.5 1.5) (end -1.5 -1.5) (layer F.Fab) (width 0.1))
  (fp_line (start -1.5 -0.85) (end -0.85 -1.5) (layer F.Fab) (width 0.1))
  (fp_line (start -1.15 -1.5) (end 1.15 -1.5) (layer F.SilkS) (width 0.2))
  (fp_line (start 1.15 -1.5) (end 1.15 1.5) (layer F.SilkS) (width 0.2))
  (fp_line (start 1.15 1.5) (end -1.15 1.5) (layer F.SilkS) (width 0.2))
  (fp_line (start -1.15 1.5) (end -1.15 -1.5) (layer F.SilkS) (width 0.2))
  (fp_line (start -2.95 -1.55) (end -1.5 -1.55) (layer F.SilkS) (width 0.2))
  (pad 1 smd rect (at -2.225 -0.975 90) (size 0.45 1.45) (layers F.Cu F.Paste F.Mask))
  (pad 2 smd rect (at -2.225 -0.325 90) (size 0.45 1.45) (layers F.Cu F.Paste F.Mask))
  (pad 3 smd rect (at -2.225 0.325 90) (size 0.45 1.45) (layers F.Cu F.Paste F.Mask))
  (pad 4 smd rect (at -2.225 0.975 90) (size 0.45 1.45) (layers F.Cu F.Paste F.Mask))
  (pad 5 smd rect (at 2.225 0.975 90) (size 0.45 1.45) (layers F.Cu F.Paste F.Mask))
  (pad 6 smd rect (at 2.225 0.325 90) (size 0.45 1.45) (layers F.Cu F.Paste F.Mask))
  (pad 7 smd rect (at 2.225 -0.325 90) (size 0.45 1.45) (layers F.Cu F.Paste F.Mask))
  (pad 8 smd rect (at 2.225 -0.975 90) (size 0.45 1.45) (layers F.Cu F.Paste F.Mask))
  (model ADP1613ARMZ-R7.stp
    (at (xyz 0 0 0))
    (scale (xyz 1 1 1))
    (rotate (xyz 0 0 0))
  )
)
