PCBNEW-LibModule-V1  
# encoding utf-8
Units mm
$INDEX
SOT230P700X180-4N
$EndINDEX
$MODULE SOT230P700X180-4N
Po 0 0 0 15 00000000 00000000 ~~
Li SOT230P700X180-4N
Cd 
Sc 00000000
At SMD
Op 0 0 0
.SolderMask 0
.SolderPaste 0
T0 -0.66 -4.754 1 1 0 0.05 N V 21 "SOT230P700X180-4N"
T1 -0.025 4.365 1 1 0 0.05 N V 21 "VAL**"
DC -4.6 -2.3 -4.5 -2.3 0.2 21
DC -4.6 -2.3 -4.5 -2.3 0.2 27
DS 1.75 -3.25 1.75 3.25 0.127 27
DS -1.75 -3.25 -1.75 3.25 0.127 27
DS 1.75 -3.25 1.75 -2.01 0.127 21
DS 1.75 -3.25 -1.75 -3.25 0.127 27
DS 1.75 3.25 -1.75 3.25 0.127 27
DS -1.75 -3.25 1.75 -3.25 0.127 21
DS 1.75 3.25 1.75 2.01 0.127 21
DS -1.75 3.25 1.75 3.25 0.127 21
DS 4.255 -1.845 2 -1.845 0.05 26
DS 2 -1.845 2 -3.5 0.05 26
DS 2 -3.5 -2 -3.5 0.05 26
DS -2 -3.5 -2 -3.02 0.05 26
DS -2 -3.02 -4.255 -3.02 0.05 26
DS -4.255 -3.02 -4.255 3.02 0.05 26
DS -4.255 3.02 -2 3.02 0.05 26
DS -2 3.02 -2 3.5 0.05 26
DS -2 3.5 2 3.5 0.05 26
DS 2 3.5 2 1.845 0.05 26
DS 2 1.845 4.255 1.845 0.05 26
DS 4.255 1.845 4.255 -1.845 0.05 26
$PAD
Sh "1" R 1.76 0.94 0 0 0
At SMD N 00088000
.SolderMask 0
.SolderPaste 0
Ne 0 ""
Po -3.125 -2.3
$EndPAD
$PAD
Sh "2" R 1.76 0.94 0 0 0
At SMD N 00088000
.SolderMask 0
.SolderPaste 0
Ne 0 ""
Po -3.125 0
$EndPAD
$PAD
Sh "3" R 1.76 0.94 0 0 0
At SMD N 00088000
.SolderMask 0
.SolderPaste 0
Ne 0 ""
Po -3.125 2.3
$EndPAD
$PAD
Sh "4" R 1.76 3.19 0 0 0
At SMD N 00088000
.SolderMask 0
.SolderPaste 0
Ne 0 ""
Po 3.125 0
$EndPAD
$EndMODULE SOT230P700X180-4N
