EESchema Schematic File Version 4
EELAYER 30 0
EELAYER END
$Descr A4 11693 8268
encoding utf-8
Sheet 3 4
Title ""
Date ""
Rev ""
Comp ""
Comment1 ""
Comment2 ""
Comment3 ""
Comment4 ""
$EndDescr
Text Notes 7400 7500 0    50   ~ 10
Status LEDs
Text Notes 10650 7650 0    50   ~ 10
1.0
Text Notes 8150 7650 0    50   ~ 10
2021/06/02
Text Notes 7000 7100 0    50   ~ 10
Author: Khelan hari (HRXKHE001)
Text Notes 7400 7500 0    50   ~ 10
Status LEDs
Text Notes 10650 7650 0    50   ~ 10
1.0
Text Notes 8150 7650 0    50   ~ 10
2021/06/02
Text Notes 7000 7100 0    50   ~ 10
Author: Khelan hari (HRXKHE001)
Text Notes 7400 7500 0    50   ~ 10
Status LEDs
Text Notes 10650 7650 0    50   ~ 10
1.0
Text Notes 8150 7650 0    50   ~ 10
2021/06/02
Text Notes 7000 7100 0    50   ~ 10
Author: Khelan hari (HRXKHE001)
$Comp
L Device:R_Small R1002
U 1 1 60BA8EE3
P 5650 1900
F 0 "R1002" V 5454 1900 50  0000 C CNN
F 1 "1.2k" V 5545 1900 50  0000 C CNN
F 2 "Resistor_SMD:R_0201_0603Metric" H 5650 1900 50  0001 C CNN
F 3 "~" H 5650 1900 50  0001 C CNN
	1    5650 1900
	0    1    1    0   
$EndComp
$Comp
L Device:R_Small R1003
U 1 1 60BAA0E2
P 5650 2550
F 0 "R1003" V 5454 2550 50  0000 C CNN
F 1 "1.2k" V 5545 2550 50  0000 C CNN
F 2 "Resistor_SMD:R_0201_0603Metric" H 5650 2550 50  0001 C CNN
F 3 "~" H 5650 2550 50  0001 C CNN
	1    5650 2550
	0    1    1    0   
$EndComp
$Comp
L Device:R_Small R1004
U 1 1 60BAAD0B
P 5650 3300
F 0 "R1004" V 5454 3300 50  0000 C CNN
F 1 "1.2k" V 5545 3300 50  0000 C CNN
F 2 "Resistor_SMD:R_0201_0603Metric" H 5650 3300 50  0001 C CNN
F 3 "~" H 5650 3300 50  0001 C CNN
	1    5650 3300
	0    1    1    0   
$EndComp
$Comp
L Device:R_Small R1005
U 1 1 60BAB5A1
P 5650 3950
F 0 "R1005" V 5454 3950 50  0000 C CNN
F 1 "1.2k" V 5545 3950 50  0000 C CNN
F 2 "Resistor_SMD:R_0201_0603Metric" H 5650 3950 50  0001 C CNN
F 3 "~" H 5650 3950 50  0001 C CNN
	1    5650 3950
	0    1    1    0   
$EndComp
$Comp
L Device:LED D1002
U 1 1 60BAC88F
P 6500 1900
F 0 "D1002" H 6493 2117 50  0000 C CNN
F 1 "LED" H 6493 2026 50  0000 C CNN
F 2 "LED_SMD:LED_0201_0603Metric" H 6500 1900 50  0001 C CNN
F 3 "~" H 6500 1900 50  0001 C CNN
	1    6500 1900
	1    0    0    -1  
$EndComp
$Comp
L Device:LED D1003
U 1 1 60BAD3BD
P 6500 2550
F 0 "D1003" H 6493 2767 50  0000 C CNN
F 1 "LED" H 6493 2676 50  0000 C CNN
F 2 "LED_SMD:LED_0201_0603Metric" H 6500 2550 50  0001 C CNN
F 3 "~" H 6500 2550 50  0001 C CNN
	1    6500 2550
	1    0    0    -1  
$EndComp
$Comp
L Device:LED D1004
U 1 1 60BAE5B7
P 6500 3300
F 0 "D1004" H 6493 3517 50  0000 C CNN
F 1 "LED" H 6493 3426 50  0000 C CNN
F 2 "LED_SMD:LED_0201_0603Metric" H 6500 3300 50  0001 C CNN
F 3 "~" H 6500 3300 50  0001 C CNN
	1    6500 3300
	1    0    0    -1  
$EndComp
$Comp
L Device:LED D1005
U 1 1 60BAED41
P 6500 3950
F 0 "D1005" H 6493 4167 50  0000 C CNN
F 1 "LED" H 6493 4076 50  0000 C CNN
F 2 "LED_SMD:LED_0201_0603Metric" H 6500 3950 50  0001 C CNN
F 3 "~" H 6500 3950 50  0001 C CNN
	1    6500 3950
	1    0    0    -1  
$EndComp
$Comp
L Device:R_Small R1006
U 1 1 60BB0FC9
P 6350 5050
F 0 "R1006" V 6154 5050 50  0000 C CNN
F 1 "200" V 6245 5050 50  0000 C CNN
F 2 "Resistor_SMD:R_0201_0603Metric" H 6350 5050 50  0001 C CNN
F 3 "~" H 6350 5050 50  0001 C CNN
	1    6350 5050
	0    1    1    0   
$EndComp
$Comp
L Device:LED D1006
U 1 1 60BB1B25
P 7100 5050
F 0 "D1006" H 7093 4795 50  0000 C CNN
F 1 "LED" H 7093 4886 50  0000 C CNN
F 2 "LED_SMD:LED_0201_0603Metric" H 7100 5050 50  0001 C CNN
F 3 "~" H 7100 5050 50  0001 C CNN
	1    7100 5050
	-1   0    0    1   
$EndComp
$Comp
L power:GND #PWR01004
U 1 1 60BB2ECB
P 7350 6250
F 0 "#PWR01004" H 7350 6000 50  0001 C CNN
F 1 "GND" H 7355 6077 50  0000 C CNN
F 2 "" H 7350 6250 50  0001 C CNN
F 3 "" H 7350 6250 50  0001 C CNN
	1    7350 6250
	1    0    0    -1  
$EndComp
$Comp
L power:GND #PWR01003
U 1 1 60BB3CFC
P 5400 6250
F 0 "#PWR01003" H 5400 6000 50  0001 C CNN
F 1 "GND" H 5405 6077 50  0000 C CNN
F 2 "" H 5400 6250 50  0001 C CNN
F 3 "" H 5400 6250 50  0001 C CNN
	1    5400 6250
	1    0    0    -1  
$EndComp
$Comp
L power:GND #PWR01001
U 1 1 60BB4CFD
P 4200 6250
F 0 "#PWR01001" H 4200 6000 50  0001 C CNN
F 1 "GND" H 4205 6077 50  0000 C CNN
F 2 "" H 4200 6250 50  0001 C CNN
F 3 "" H 4200 6250 50  0001 C CNN
	1    4200 6250
	1    0    0    -1  
$EndComp
$Comp
L power:GND #PWR01002
U 1 1 60BB5E6A
P 4750 6250
F 0 "#PWR01002" H 4750 6000 50  0001 C CNN
F 1 "GND" H 4755 6077 50  0000 C CNN
F 2 "" H 4750 6250 50  0001 C CNN
F 3 "" H 4750 6250 50  0001 C CNN
	1    4750 6250
	1    0    0    -1  
$EndComp
$Comp
L Device:D_Zener D1001
U 1 1 60BB67D1
P 4750 5950
F 0 "D1001" V 4704 6030 50  0000 L CNN
F 1 "D_Zener" V 4795 6030 50  0000 L CNN
F 2 "Diode_SMD:D_0201_0603Metric" H 4750 5950 50  0001 C CNN
F 3 "~" H 4750 5950 50  0001 C CNN
	1    4750 5950
	0    1    1    0   
$EndComp
$Comp
L Device:R_Small R1007
U 1 1 60BC2003
P 9150 4000
F 0 "R1007" H 9091 3954 50  0000 R CNN
F 1 "1.2k" H 9091 4045 50  0000 R CNN
F 2 "Resistor_SMD:R_0201_0603Metric" H 9150 4000 50  0001 C CNN
F 3 "~" H 9150 4000 50  0001 C CNN
	1    9150 4000
	-1   0    0    1   
$EndComp
$Comp
L Device:LED D1007
U 1 1 60BC333B
P 9150 4600
F 0 "D1007" V 9189 4482 50  0000 R CNN
F 1 "LED" V 9098 4482 50  0000 R CNN
F 2 "LED_SMD:LED_0201_0603Metric" H 9150 4600 50  0001 C CNN
F 3 "~" H 9150 4600 50  0001 C CNN
	1    9150 4600
	0    -1   -1   0   
$EndComp
$Comp
L power:GND #PWR01006
U 1 1 60BC4090
P 9150 5150
F 0 "#PWR01006" H 9150 4900 50  0001 C CNN
F 1 "GND" H 9155 4977 50  0000 C CNN
F 2 "" H 9150 5150 50  0001 C CNN
F 3 "" H 9150 5150 50  0001 C CNN
	1    9150 5150
	1    0    0    -1  
$EndComp
$Comp
L Device:R_Small R1001
U 1 1 60BCAE93
P 4200 5950
F 0 "R1001" H 4259 5996 50  0000 L CNN
F 1 "5k" H 4259 5905 50  0000 L CNN
F 2 "Resistor_SMD:R_0201_0603Metric" H 4200 5950 50  0001 C CNN
F 3 "~" H 4200 5950 50  0001 C CNN
	1    4200 5950
	1    0    0    -1  
$EndComp
Wire Wire Line
	3800 1800 4400 1800
Wire Wire Line
	3800 2450 4400 2450
Wire Wire Line
	3800 3200 4400 3200
Wire Wire Line
	3800 3850 4400 3850
Wire Wire Line
	5000 1900 5550 1900
Wire Wire Line
	5750 1900 6350 1900
Wire Wire Line
	5000 2550 5550 2550
Wire Wire Line
	5750 2550 6350 2550
Wire Wire Line
	5000 3300 5550 3300
Wire Wire Line
	5750 3300 6350 3300
Wire Wire Line
	5000 3950 5550 3950
Wire Wire Line
	5750 3950 6350 3950
Wire Wire Line
	5900 5050 6250 5050
Wire Wire Line
	6450 5050 6950 5050
Wire Wire Line
	7250 5050 7350 5050
Wire Wire Line
	7350 5050 7350 6250
Wire Wire Line
	9150 3550 9150 3900
Wire Wire Line
	9150 4100 9150 4450
Wire Wire Line
	9150 4750 9150 5150
Wire Wire Line
	7200 1250 7200 1900
Wire Wire Line
	7200 3950 6650 3950
Wire Wire Line
	6650 3300 7200 3300
Connection ~ 7200 3300
Wire Wire Line
	7200 3300 7200 3950
Wire Wire Line
	6650 2550 7200 2550
Connection ~ 7200 2550
Wire Wire Line
	7200 2550 7200 3300
Wire Wire Line
	6650 1900 7200 1900
Connection ~ 7200 1900
Wire Wire Line
	7200 1900 7200 2550
Wire Wire Line
	4200 6250 4200 6050
Wire Wire Line
	4200 1200 4200 2000
Wire Wire Line
	4750 6250 4750 6100
Wire Wire Line
	5400 6250 5400 5650
Wire Wire Line
	4200 2000 4400 2000
Connection ~ 4200 2000
Wire Wire Line
	4200 2000 4200 2650
Wire Wire Line
	4200 2650 4400 2650
Connection ~ 4200 2650
Wire Wire Line
	4200 2650 4200 3400
Wire Wire Line
	4200 3400 4400 3400
Connection ~ 4200 3400
Wire Wire Line
	4200 3400 4200 4050
Wire Wire Line
	4200 4050 4400 4050
Connection ~ 4200 4050
Wire Wire Line
	4200 4050 4200 5450
Wire Wire Line
	4900 5250 4750 5250
Wire Wire Line
	4750 5250 4750 5800
Wire Wire Line
	4900 5450 4200 5450
Connection ~ 4200 5450
Wire Wire Line
	4200 5450 4200 5700
Wire Wire Line
	4900 5050 3800 5050
Wire Wire Line
	5900 5450 5900 5700
Wire Wire Line
	5900 5700 4200 5700
Connection ~ 4200 5700
Wire Wire Line
	4200 5700 4200 5850
Wire Notes Line
	4000 1550 4000 5150
Wire Notes Line
	4000 5150 1550 5150
Wire Notes Line
	1550 5150 1550 1550
Wire Notes Line
	1550 1550 4000 1550
Wire Notes Line
	7600 4550 7600 6500
Wire Notes Line
	7600 6500 3450 6500
Wire Notes Line
	3450 6500 3450 4550
Wire Notes Line
	3450 4550 7600 4550
Wire Notes Line
	11100 3400 11100 5450
Wire Notes Line
	11100 5450 8500 5450
Wire Notes Line
	8500 5450 8500 3400
Wire Notes Line
	8500 3400 11100 3400
Wire Notes Line
	3700 1450 7300 1450
Wire Notes Line
	7300 1450 7300 550 
Wire Notes Line
	7300 550  3700 550 
Wire Notes Line
	3700 550  3700 1450
Text Notes 1650 1900 0    50   ~ 0
“100”-“20” to be connected to voltage divider \ncircuit so that comparators can compare it to \nthe batteries actual voltage.
Text Notes 3850 700  0    50   ~ 0
Vbattery to be connected directly to the batteries output.
Text Notes 5450 6100 0    50   ~ 0
555 Timer circuit connected to 20% to flash \nLED repeatedly when power is at 20% or lower. 
Text Notes 9450 3600 0    50   ~ 0
Connected to ouput of powercircuitry \nto indicate charging.
$Comp
L power:GND #PWR01005
U 1 1 60BD775E
P 7700 3250
F 0 "#PWR01005" H 7700 3000 50  0001 C CNN
F 1 "GND" H 7705 3077 50  0000 C CNN
F 2 "" H 7700 3250 50  0001 C CNN
F 3 "" H 7700 3250 50  0001 C CNN
	1    7700 3250
	1    0    0    -1  
$EndComp
Wire Wire Line
	7700 1300 7700 2300
Wire Wire Line
	7700 2900 7700 3250
$Comp
L Comparator:LM339 U1001
U 1 1 60BFEF90
P 4700 1900
F 0 "U1001" H 4700 2267 50  0000 C CNN
F 1 "LM339" H 4700 2176 50  0000 C CNN
F 2 "Package_SO:SOIC-14_3.9x8.7mm_P1.27mm" H 4650 2000 50  0001 C CNN
F 3 "https://www.st.com/resource/en/datasheet/lm139.pdf" H 4750 2100 50  0001 C CNN
	1    4700 1900
	1    0    0    -1  
$EndComp
$Comp
L Comparator:LM339 U1001
U 2 1 60BFFDEE
P 4700 2550
F 0 "U1001" H 4700 2917 50  0000 C CNN
F 1 "LM339" H 4700 2826 50  0000 C CNN
F 2 "Package_SO:SOIC-14_3.9x8.7mm_P1.27mm" H 4650 2650 50  0001 C CNN
F 3 "https://www.st.com/resource/en/datasheet/lm139.pdf" H 4750 2750 50  0001 C CNN
	2    4700 2550
	1    0    0    -1  
$EndComp
$Comp
L Comparator:LM339 U1001
U 3 1 60C00A8D
P 4700 3300
F 0 "U1001" H 4700 3667 50  0000 C CNN
F 1 "LM339" H 4700 3576 50  0000 C CNN
F 2 "Package_SO:SOIC-14_3.9x8.7mm_P1.27mm" H 4650 3400 50  0001 C CNN
F 3 "https://www.st.com/resource/en/datasheet/lm139.pdf" H 4750 3500 50  0001 C CNN
	3    4700 3300
	1    0    0    -1  
$EndComp
$Comp
L Comparator:LM339 U1001
U 4 1 60C01D5E
P 4700 3950
F 0 "U1001" H 4700 4317 50  0000 C CNN
F 1 "LM339" H 4700 4226 50  0000 C CNN
F 2 "Package_SO:SOIC-14_3.9x8.7mm_P1.27mm" H 4650 4050 50  0001 C CNN
F 3 "https://www.st.com/resource/en/datasheet/lm139.pdf" H 4750 4150 50  0001 C CNN
	4    4700 3950
	1    0    0    -1  
$EndComp
$Comp
L Comparator:LM339 U1001
U 5 1 60C02E1D
P 7800 2600
F 0 "U1001" H 7758 2646 50  0000 L CNN
F 1 "LM339" H 7758 2555 50  0000 L CNN
F 2 "Package_SO:SOIC-14_3.9x8.7mm_P1.27mm" H 7750 2700 50  0001 C CNN
F 3 "https://www.st.com/resource/en/datasheet/lm139.pdf" H 7850 2800 50  0001 C CNN
	5    7800 2600
	1    0    0    -1  
$EndComp
Text GLabel 9150 3550 0    50   Input ~ 0
PowerCircuitry
Text GLabel 7700 1300 0    50   Input ~ 0
Vbattery
Text GLabel 7200 1250 0    50   Input ~ 0
Vbattery
Text GLabel 4200 1200 0    50   Input ~ 0
Vbattery
Text GLabel 3800 1800 0    50   Input ~ 0
100
Text GLabel 3800 2450 0    50   Input ~ 0
80
Text GLabel 3800 3200 0    50   Input ~ 0
60
Text GLabel 3800 3850 0    50   Input ~ 0
40
Text GLabel 3800 5050 0    50   Input ~ 0
20
$Comp
L Status_LEDs-rescue:NE555D-Timer U1002
U 1 1 60BB814A
P 5400 5250
F 0 "U1002" H 5400 5831 50  0000 C CNN
F 1 "NE555D-Timer" H 5400 5740 50  0000 C CNN
F 2 "Package_SO:SOIC-8_3.9x4.9mm_P1.27mm" H 6250 4850 50  0001 C CNN
F 3 "" H 6250 4850 50  0001 C CNN
	1    5400 5250
	1    0    0    -1  
$EndComp
$EndSCHEMATC
