EESchema Schematic File Version 4
EELAYER 30 0
EELAYER END
$Descr A4 11693 8268
encoding utf-8
Sheet 1 4
Title "Raspberry Pi Zero (W) uHAT Template Board"
Date "2021-06-11"
Rev "1.0"
Comp "THLALE002 HRXKHE001 WTHJOS001"
Comment1 "Group 19"
Comment2 "This Schematic is licensed under MIT Open Source License."
Comment3 ""
Comment4 ""
$EndDescr
Wire Wire Line
	4950 1300 4950 1400
$Comp
L Mechanical:MountingHole H4
U 1 1 5C7C8030
P 6150 2350
F 0 "H4" H 6250 2396 50  0000 L CNN
F 1 "MountingHole" H 6250 2305 50  0000 L CNN
F 2 "lib:MountingHole_2.7mm_M2.5_uHAT_RPi" H 6150 2350 50  0001 C CNN
F 3 "~" H 6150 2350 50  0001 C CNN
	1    6150 2350
	1    0    0    -1  
$EndComp
$Comp
L Mechanical:MountingHole H3
U 1 1 5C7C8014
P 6150 2150
F 0 "H3" H 6250 2196 50  0000 L CNN
F 1 "MountingHole" H 6250 2105 50  0000 L CNN
F 2 "lib:MountingHole_2.7mm_M2.5_uHAT_RPi" H 6150 2150 50  0001 C CNN
F 3 "~" H 6150 2150 50  0001 C CNN
	1    6150 2150
	1    0    0    -1  
$EndComp
$Comp
L Mechanical:MountingHole H2
U 1 1 5C7C7FBC
P 6150 1950
F 0 "H2" H 6250 1996 50  0000 L CNN
F 1 "MountingHole" H 6250 1905 50  0000 L CNN
F 2 "lib:MountingHole_2.7mm_M2.5_uHAT_RPi" H 6150 1950 50  0001 C CNN
F 3 "~" H 6150 1950 50  0001 C CNN
	1    6150 1950
	1    0    0    -1  
$EndComp
$Comp
L Mechanical:MountingHole H1
U 1 1 5C7C4C81
P 6150 1750
F 0 "H1" H 6250 1796 50  0000 L CNN
F 1 "MountingHole" H 6250 1705 50  0000 L CNN
F 2 "lib:MountingHole_2.7mm_M2.5_uHAT_RPi" H 6150 1750 50  0001 C CNN
F 3 "~" H 6150 1750 50  0001 C CNN
	1    6150 1750
	1    0    0    -1  
$EndComp
Wire Wire Line
	4850 3200 5900 3200
NoConn ~ 5900 3200
NoConn ~ 5900 3100
NoConn ~ 5900 3000
NoConn ~ 5900 2800
NoConn ~ 5900 2600
NoConn ~ 5900 2500
NoConn ~ 5900 2400
NoConn ~ 5900 2300
NoConn ~ 5900 2100
NoConn ~ 5900 2000
NoConn ~ 5900 1800
NoConn ~ 5900 1700
NoConn ~ 5900 1600
Wire Wire Line
	4850 3100 5900 3100
Wire Wire Line
	4850 3000 5900 3000
Wire Wire Line
	4850 2800 5900 2800
Wire Wire Line
	4850 2600 5900 2600
Wire Wire Line
	4850 2300 5900 2300
Wire Wire Line
	4850 2100 5900 2100
Wire Wire Line
	4850 2000 5900 2000
Wire Wire Line
	4850 1800 5900 1800
Wire Wire Line
	4850 1700 5900 1700
Wire Wire Line
	4850 1600 5900 1600
Text Label 5200 3200 0    50   ~ 0
GPIO21
Text Label 5200 3100 0    50   ~ 0
GPIO20
Text Label 5200 3000 0    50   ~ 0
GPIO16
Text Label 5200 2800 0    50   ~ 0
GPIO12
Text Label 5200 2600 0    50   ~ 0
ID_SC
Wire Wire Line
	4850 2500 5900 2500
Wire Wire Line
	4850 2400 5900 2400
Text Label 5200 2500 0    50   ~ 0
GPIO7_SPI_CE1_N
Text Label 5200 2400 0    50   ~ 0
GPIO8_SPI_CE0_N
Text Label 5200 2300 0    50   ~ 0
GPIO25_GEN6
Text Label 5200 2100 0    50   ~ 0
GPIO24_GEN5
Text Label 5200 2000 0    50   ~ 0
GPIO23_GEN4
Text Label 5200 1800 0    50   ~ 0
GPIO18_GEN1
Text Label 5200 1700 0    50   ~ 0
GPIO15_RXD0
Text Label 5200 1600 0    50   ~ 0
GPIO14_TXD0
NoConn ~ 3300 3100
NoConn ~ 3300 3000
NoConn ~ 3300 2900
NoConn ~ 3300 2800
NoConn ~ 3300 2700
NoConn ~ 3300 2600
NoConn ~ 3300 2400
NoConn ~ 3300 2300
NoConn ~ 3300 2200
NoConn ~ 3300 2000
NoConn ~ 3300 1900
NoConn ~ 3300 1800
NoConn ~ 3300 1600
NoConn ~ 3300 1500
NoConn ~ 3300 1400
Text Label 3400 3100 0    50   ~ 0
GPIO26
Text Label 3400 3000 0    50   ~ 0
GPIO19
Text Label 3400 2900 0    50   ~ 0
GPIO13
Text Label 3400 2800 0    50   ~ 0
GPIO6
Text Label 3400 2700 0    50   ~ 0
GPIO5
Text Label 3400 2600 0    50   ~ 0
ID_SD
Text Label 3400 2400 0    50   ~ 0
GPIO11_SPI_SCLK
Text Label 3400 2300 0    50   ~ 0
GPIO9_SPI_MISO
Wire Wire Line
	3300 1400 4350 1400
Wire Wire Line
	3300 1500 4350 1500
Wire Wire Line
	3300 1600 4350 1600
Wire Wire Line
	3300 1800 4350 1800
Wire Wire Line
	3300 1900 4350 1900
Wire Wire Line
	3300 2000 4350 2000
Wire Wire Line
	3300 3100 4350 3100
Wire Wire Line
	3300 3000 4350 3000
Wire Wire Line
	3300 2900 4350 2900
Wire Wire Line
	3300 2800 4350 2800
Wire Wire Line
	3300 2700 4350 2700
Wire Wire Line
	3300 2600 4350 2600
Wire Wire Line
	3300 2400 4350 2400
Wire Wire Line
	3300 2300 4350 2300
Wire Wire Line
	3300 2200 4350 2200
Text Label 3400 2200 0    50   ~ 0
GPIO10_SPI_MOSI
Text Label 3400 2000 0    50   ~ 0
GPIO22_GEN3
Text Label 3400 1900 0    50   ~ 0
GPIO27_GEN2
Text Label 3400 1800 0    50   ~ 0
GPIO17_GEN0
Text Label 3400 1600 0    50   ~ 0
GPIO4_GPIO_GCLK
Text Label 3400 1500 0    50   ~ 0
GPIO3_SCL1
Text Label 3400 1400 0    50   ~ 0
GPIO2_SDA1
Wire Wire Line
	5500 1200 5500 1300
Wire Wire Line
	5150 1300 5500 1300
$Comp
L power:PWR_FLAG #FLG03
U 1 1 5C77CEFA
P 5500 1200
F 0 "#FLG03" H 5500 1275 50  0001 C CNN
F 1 "PWR_FLAG" H 5500 1374 50  0000 C CNN
F 2 "" H 5500 1200 50  0001 C CNN
F 3 "~" H 5500 1200 50  0001 C CNN
	1    5500 1200
	1    0    0    -1  
$EndComp
Wire Wire Line
	3700 1300 4100 1300
Wire Wire Line
	3700 1300 3700 1200
Wire Wire Line
	4100 1300 4350 1300
Wire Notes Line
	7500 1100 5650 1100
Wire Notes Line
	7500 1450 7500 1100
Wire Notes Line
	5650 1450 7500 1450
Wire Notes Line
	5650 1100 5650 1450
Text Notes 5700 1400 0    50   ~ 10
If back powering Pi with 5V \nNOTE that the Raspberry Pi 3B+ and Pi Zero \nand ZeroW do not include an input ZVD.
Wire Wire Line
	4800 3750 4800 3800
$Comp
L power:PWR_FLAG #FLG02
U 1 1 5C778511
P 4800 3750
F 0 "#FLG02" H 4800 3825 50  0001 C CNN
F 1 "PWR_FLAG" H 4800 3924 50  0000 C CNN
F 2 "" H 4800 3750 50  0001 C CNN
F 3 "~" H 4800 3750 50  0001 C CNN
	1    4800 3750
	1    0    0    -1  
$EndComp
$Comp
L power:GND #PWR03
U 1 1 5C778504
P 4800 3800
F 0 "#PWR03" H 4800 3550 50  0001 C CNN
F 1 "GND" H 4805 3627 50  0001 C CNN
F 2 "" H 4800 3800 50  0001 C CNN
F 3 "" H 4800 3800 50  0001 C CNN
	1    4800 3800
	1    0    0    -1  
$EndComp
$Comp
L power:PWR_FLAG #FLG01
U 1 1 5C77824A
P 3700 1200
F 0 "#FLG01" H 3700 1275 50  0001 C CNN
F 1 "PWR_FLAG" H 3700 1374 50  0000 C CNN
F 2 "" H 3700 1200 50  0001 C CNN
F 3 "~" H 3700 1200 50  0001 C CNN
	1    3700 1200
	1    0    0    -1  
$EndComp
Connection ~ 5150 1300
Wire Wire Line
	5150 1400 5150 1300
Wire Wire Line
	4850 1400 4950 1400
Wire Wire Line
	5150 1300 5150 1200
Wire Wire Line
	4850 1300 4950 1300
Connection ~ 4100 1300
Wire Wire Line
	4100 2100 4100 1300
Wire Wire Line
	4350 2100 4100 2100
Wire Wire Line
	4100 1300 4100 1200
$Comp
L power:+3.3V #PWR01
U 1 1 5C777AB0
P 4100 1200
F 0 "#PWR01" H 4100 1050 50  0001 C CNN
F 1 "+3.3V" H 4115 1373 50  0000 C CNN
F 2 "" H 4100 1200 50  0001 C CNN
F 3 "" H 4100 1200 50  0001 C CNN
	1    4100 1200
	1    0    0    -1  
$EndComp
Wire Wire Line
	5050 2900 5050 3350
Connection ~ 5050 2900
Wire Wire Line
	4850 2900 5050 2900
Wire Wire Line
	5050 2700 5050 2900
Connection ~ 5050 2700
Wire Wire Line
	5050 2200 5050 2700
Wire Wire Line
	4850 2700 5050 2700
Connection ~ 5050 2200
Wire Wire Line
	4850 2200 5050 2200
Wire Wire Line
	5050 1900 5050 2200
Connection ~ 5050 1900
Wire Wire Line
	4850 1900 5050 1900
Wire Wire Line
	5050 1500 5050 1900
Wire Wire Line
	4850 1500 5050 1500
Wire Wire Line
	4150 3200 4150 3350
Connection ~ 4150 3200
Wire Wire Line
	4350 3200 4150 3200
Wire Wire Line
	4150 2500 4150 3200
Connection ~ 4150 2500
Wire Wire Line
	4350 2500 4150 2500
Wire Wire Line
	4150 1700 4150 2500
Wire Wire Line
	4350 1700 4150 1700
$Comp
L power:GND #PWR04
U 1 1 5C777838
P 5050 3350
F 0 "#PWR04" H 5050 3100 50  0001 C CNN
F 1 "GND" H 5055 3177 50  0001 C CNN
F 2 "" H 5050 3350 50  0001 C CNN
F 3 "" H 5050 3350 50  0001 C CNN
	1    5050 3350
	1    0    0    -1  
$EndComp
$Comp
L power:GND #PWR02
U 1 1 5C777805
P 4150 3350
F 0 "#PWR02" H 4150 3100 50  0001 C CNN
F 1 "GND" H 4155 3177 50  0001 C CNN
F 2 "" H 4150 3350 50  0001 C CNN
F 3 "" H 4150 3350 50  0001 C CNN
	1    4150 3350
	1    0    0    -1  
$EndComp
$Comp
L Connector_Generic:Conn_02x20_Odd_Even J1
U 1 1 5C77771F
P 4550 2200
F 0 "J1" H 4600 3317 50  0000 C CNN
F 1 "GPIO_CONNECTOR" H 4600 3226 50  0000 C CNN
F 2 "lib:PinSocket_2x20_P2.54mm_Vertical_Centered_Anchor" H 4550 2200 50  0001 C CNN
F 3 "~" H 4550 2200 50  0001 C CNN
	1    4550 2200
	1    0    0    -1  
$EndComp
Connection ~ 4950 1300
Wire Wire Line
	4950 1300 5150 1300
Connection ~ 4950 1400
Wire Wire Line
	4950 1400 5150 1400
$Sheet
S 8300 1150 1250 300 
U 60BD15D1
F0 "Voltmeter" 50
F1 "Voltmeter.sch" 50
$EndSheet
$Sheet
S 8300 1700 1250 350 
U 60BD1F14
F0 "StatusLeds" 50
F1 "StatusLeds.sch" 50
$EndSheet
$Sheet
S 8300 2300 1250 400 
U 60BD7F9B
F0 "PowerCircuitry" 50
F1 "PowerCircuitry.sch" 50
$EndSheet
$Comp
L power:+5V #PWR05
U 1 1 5C777E01
P 5150 1200
F 0 "#PWR05" H 5150 1050 50  0001 C CNN
F 1 "+5V" H 5165 1373 50  0000 C CNN
F 2 "" H 5150 1200 50  0001 C CNN
F 3 "" H 5150 1200 50  0001 C CNN
	1    5150 1200
	1    0    0    -1  
$EndComp
$EndSCHEMATC
