EESchema Schematic File Version 4
EELAYER 30 0
EELAYER END
$Descr A4 11693 8268
encoding utf-8
Sheet 4 4
Title "Raspberry Pi Zero (W) uHAT Template Board"
Date "2021-06-11"
Rev "1.0"
Comp "THLALE002 HRXKHE001 WTHJOS001"
Comment1 "Group 19"
Comment2 "This Schematic is licensed under MIT Open Source License."
Comment3 ""
Comment4 ""
$EndDescr
Text Notes 7350 7500 0    50   ~ 0
Power Circuitry
Text Notes 8150 7650 0    50   ~ 0
4/06/2021
Text Notes 10550 7650 0    50   ~ 0
1.0
$Comp
L Regulator_Linear:LT1117-5.0 U2006
U 1 1 60B9E788
P 8700 3350
F 0 "U2006" H 8700 3592 50  0000 C CNN
F 1 "LT1117-5.0" H 8700 3501 50  0000 C CNN
F 2 "Package_TO_SOT_SMD:SOT-223" H 8700 3350 50  0001 C CNN
F 3 "https://www.analog.com/media/en/technical-documentation/data-sheets/1117fd.pdf" H 8700 3350 50  0001 C CNN
	1    8700 3350
	1    0    0    -1  
$EndComp
$Comp
L Power_Management:LTC4412xS6 U2002
U 1 1 60B9FC6F
P 1800 4100
F 0 "U2002" H 1800 4681 50  0000 C CNN
F 1 "LTC4412xS6" H 1800 4590 50  0000 C CNN
F 2 "LTC4412HVIS6#TRMPBF:SOT95P280X100-6N" H 2450 3750 50  0001 C CNN
F 3 "https://www.analog.com/media/en/technical-documentation/data-sheets/4412fb.pdf" H 3900 3900 50  0001 C CNN
	1    1800 4100
	1    0    0    -1  
$EndComp
$Comp
L Device:Q_PMOS_DGS AONR2001
U 1 1 60BA43AE
P 2450 3700
F 0 "AONR2001" V 2792 3700 50  0000 C CNN
F 1 "Q_PMOS_DGS" V 2701 3700 50  0000 C CNN
F 2 "Package_TO_SOT_SMD:Infineon_PG-HDSOP-10-1" H 2650 3800 50  0001 C CNN
F 3 "~" H 2450 3700 50  0001 C CNN
	1    2450 3700
	0    -1   -1   0   
$EndComp
$Comp
L pspice:OPAMP U2001
U 1 1 60BA6EB0
P 1600 2100
F 0 "U2001" H 1944 2146 50  0000 L CNN
F 1 "OPAMP" H 1944 2055 50  0000 L CNN
F 2 "Package_TO_SOT_SMD:SOT-23-5" H 1600 2100 50  0001 C CNN
F 3 "~" H 1600 2100 50  0001 C CNN
	1    1600 2100
	1    0    0    -1  
$EndComp
$Comp
L Device:R_Small_US R2002
U 1 1 60BB0C16
P 1250 2850
F 0 "R2002" H 1318 2896 50  0000 L CNN
F 1 "5.6k" H 1318 2805 50  0000 L CNN
F 2 "Resistor_SMD:R_0201_0603Metric" H 1250 2850 50  0001 C CNN
F 3 "~" H 1250 2850 50  0001 C CNN
	1    1250 2850
	1    0    0    -1  
$EndComp
$Comp
L Device:R_Small_US R2001
U 1 1 60BB172E
P 1150 2750
F 0 "R2001" V 945 2750 50  0000 C CNN
F 1 "10k" V 1036 2750 50  0000 C CNN
F 2 "Resistor_SMD:R_0201_0603Metric" H 1150 2750 50  0001 C CNN
F 3 "~" H 1150 2750 50  0001 C CNN
	1    1150 2750
	0    1    1    0   
$EndComp
Text GLabel 2450 2100 2    50   Input ~ 0
PowerCircuitry
$Comp
L power:GND #PWR02001
U 1 1 60BB36F7
P 1250 2950
F 0 "#PWR02001" H 1250 2700 50  0001 C CNN
F 1 "GND" H 1255 2777 50  0000 C CNN
F 2 "" H 1250 2950 50  0001 C CNN
F 3 "" H 1250 2950 50  0001 C CNN
	1    1250 2950
	1    0    0    -1  
$EndComp
$Comp
L pspice:CAP C2001
U 1 1 60BB5018
P 2850 3850
F 0 "C2001" H 3028 3896 50  0000 L CNN
F 1 "10uF" H 3028 3805 50  0000 L CNN
F 2 "Capacitor_SMD:CP_Elec_3x5.3" H 2850 3850 50  0001 C CNN
F 3 "~" H 2850 3850 50  0001 C CNN
	1    2850 3850
	1    0    0    -1  
$EndComp
$Comp
L pspice:CAP C2004
U 1 1 60BB8A05
P 4800 3500
F 0 "C2004" H 4978 3546 50  0000 L CNN
F 1 "33nF" H 4978 3455 50  0000 L CNN
F 2 "Capacitor_SMD:CP_Elec_3x5.3" H 4800 3500 50  0001 C CNN
F 3 "~" H 4800 3500 50  0001 C CNN
	1    4800 3500
	1    0    0    -1  
$EndComp
$Comp
L power:GND #PWR02006
U 1 1 60BB92BB
P 4800 3050
F 0 "#PWR02006" H 4800 2800 50  0001 C CNN
F 1 "GND" H 4805 2877 50  0000 C CNN
F 2 "" H 4800 3050 50  0001 C CNN
F 3 "" H 4800 3050 50  0001 C CNN
	1    4800 3050
	-1   0    0    1   
$EndComp
$Comp
L pspice:INDUCTOR L2001
U 1 1 60BB9A40
P 4650 4300
F 0 "L2001" H 4650 4250 50  0000 C CNN
F 1 "15uH" H 4650 4424 50  0000 C CNN
F 2 "Inductor_SMD:L_6.3x6.3_H3" H 4650 4300 50  0001 C CNN
F 3 "~" H 4650 4300 50  0001 C CNN
	1    4650 4300
	1    0    0    -1  
$EndComp
Wire Wire Line
	4900 4300 4900 4150
Wire Wire Line
	4900 4050 4800 4050
Wire Wire Line
	4800 3950 4950 3950
Wire Wire Line
	2850 3600 3050 3600
Wire Wire Line
	4950 4400 4400 4400
Wire Wire Line
	4900 4150 5050 4150
Connection ~ 4900 4150
Wire Wire Line
	4900 4150 4900 4050
Wire Wire Line
	4400 4350 4400 4300
Wire Wire Line
	3700 4050 3450 4050
Wire Wire Line
	1900 2100 2450 2100
Wire Wire Line
	1250 2750 1250 2200
Wire Wire Line
	1250 2200 1300 2200
Connection ~ 1250 2750
Text GLabel 900  3600 0    50   Input ~ 0
Vbattery
Text GLabel 1050 2750 0    50   Input ~ 0
12V_DC
Wire Wire Line
	900  3600 900  2000
Wire Wire Line
	1250 2750 1800 2750
Wire Wire Line
	900  3600 1250 3600
Wire Wire Line
	1250 3600 1250 4000
Wire Wire Line
	1250 4000 1400 4000
Connection ~ 1250 3600
Wire Wire Line
	2150 3700 2150 3900
Wire Wire Line
	2150 3900 2450 3900
Wire Wire Line
	2650 3600 2650 4000
Wire Wire Line
	2650 4000 2200 4000
Wire Wire Line
	1400 4200 1400 4550
$Comp
L power:GND #PWR02003
U 1 1 60BC9212
P 1800 4650
F 0 "#PWR02003" H 1800 4400 50  0001 C CNN
F 1 "GND" H 1805 4477 50  0000 C CNN
F 2 "" H 1800 4650 50  0001 C CNN
F 3 "" H 1800 4650 50  0001 C CNN
	1    1800 4650
	1    0    0    -1  
$EndComp
Wire Wire Line
	1800 4500 1800 4550
Wire Wire Line
	1400 4550 1800 4550
Connection ~ 1800 4550
Wire Wire Line
	1800 4550 1800 4650
Wire Wire Line
	2200 4550 1800 4550
Wire Wire Line
	2200 4200 2200 4550
Wire Wire Line
	3050 3600 3050 4350
Wire Wire Line
	3050 4350 3650 4350
Wire Wire Line
	2850 3600 2750 3600
Connection ~ 2850 3600
Connection ~ 2650 3600
Wire Wire Line
	2750 3600 2750 2750
Connection ~ 2750 3600
Wire Wire Line
	2750 3600 2650 3600
Wire Wire Line
	2100 3600 2100 3550
Wire Wire Line
	2100 3550 3350 3550
Wire Wire Line
	3350 3550 3350 3950
Wire Wire Line
	3350 3950 3700 3950
Connection ~ 2100 3600
Wire Wire Line
	2100 3600 2250 3600
$Comp
L Device:R_Small_US R2003
U 1 1 60BCECA2
P 3700 3650
F 0 "R2003" H 3768 3696 50  0000 L CNN
F 1 "18k" H 3768 3605 50  0000 L CNN
F 2 "Resistor_SMD:R_0201_0603Metric" H 3700 3650 50  0001 C CNN
F 3 "~" H 3700 3650 50  0001 C CNN
	1    3700 3650
	1    0    0    -1  
$EndComp
$Comp
L pspice:CAP C2003
U 1 1 60BCF3CB
P 3700 3300
F 0 "C2003" H 3878 3346 50  0000 L CNN
F 1 "820pF" H 3878 3255 50  0000 L CNN
F 2 "Capacitor_SMD:CP_Elec_3x5.3" H 3700 3300 50  0001 C CNN
F 3 "~" H 3700 3300 50  0001 C CNN
	1    3700 3300
	1    0    0    -1  
$EndComp
Wire Wire Line
	3700 3050 4800 3050
Wire Wire Line
	4800 3250 4800 3200
Connection ~ 4800 3050
$Comp
L Device:D_Schottky RBR2M30A2001
U 1 1 60BD2DC6
P 5300 3800
F 0 "RBR2M30A2001" H 5300 3583 50  0000 C CNN
F 1 "D_Schottky" H 5300 3674 50  0000 C CNN
F 2 "Diode_SMD:D_0201_0603Metric" H 5300 3800 50  0001 C CNN
F 3 "~" H 5300 3800 50  0001 C CNN
	1    5300 3800
	-1   0    0    1   
$EndComp
Wire Wire Line
	3450 3050 3700 3050
Wire Wire Line
	3450 3050 3450 4050
Connection ~ 3700 3050
Wire Wire Line
	5050 3800 5150 3800
Wire Wire Line
	5050 3800 5050 4150
Wire Wire Line
	5450 3800 5450 3400
$Comp
L Device:R_Small_US R2005
U 1 1 60BD762D
P 5450 3300
F 0 "R2005" H 5518 3346 50  0000 L CNN
F 1 "R110k" H 5518 3255 50  0000 L CNN
F 2 "Resistor_SMD:R_0201_0603Metric" H 5450 3300 50  0001 C CNN
F 3 "~" H 5450 3300 50  0001 C CNN
	1    5450 3300
	1    0    0    -1  
$EndComp
$Comp
L Device:R_Small_US R2004
U 1 1 60BD80E8
P 5450 2750
F 0 "R2004" H 5518 2796 50  0000 L CNN
F 1 "10k" H 5518 2705 50  0000 L CNN
F 2 "Resistor_SMD:R_0201_0603Metric" H 5450 2750 50  0001 C CNN
F 3 "~" H 5450 2750 50  0001 C CNN
	1    5450 2750
	1    0    0    -1  
$EndComp
Wire Wire Line
	5450 2850 5450 3000
$Comp
L power:GND #PWR02007
U 1 1 60BD9A3F
P 5450 2650
F 0 "#PWR02007" H 5450 2400 50  0001 C CNN
F 1 "GND" H 5455 2477 50  0000 C CNN
F 2 "" H 5450 2650 50  0001 C CNN
F 3 "" H 5450 2650 50  0001 C CNN
	1    5450 2650
	-1   0    0    1   
$EndComp
Wire Wire Line
	3500 3000 3500 3850
Wire Wire Line
	3500 3850 3700 3850
Connection ~ 5450 3000
Wire Wire Line
	5450 3000 5450 3200
Wire Wire Line
	4950 3950 4950 4400
Wire Wire Line
	4400 4350 4400 4400
Connection ~ 4400 4350
Wire Wire Line
	5450 3800 5700 3800
Connection ~ 5450 3800
$Comp
L pspice:CAP C2005
U 1 1 60BE0B28
P 5700 4050
F 0 "C2005" H 5878 4096 50  0000 L CNN
F 1 "10uF" H 5878 4005 50  0000 L CNN
F 2 "Capacitor_SMD:CP_Elec_3x5.3" H 5700 4050 50  0001 C CNN
F 3 "~" H 5700 4050 50  0001 C CNN
	1    5700 4050
	1    0    0    -1  
$EndComp
$Comp
L power:GND #PWR02008
U 1 1 60BE1429
P 5700 4300
F 0 "#PWR02008" H 5700 4050 50  0001 C CNN
F 1 "GND" H 5705 4127 50  0000 C CNN
F 2 "" H 5700 4300 50  0001 C CNN
F 3 "" H 5700 4300 50  0001 C CNN
	1    5700 4300
	1    0    0    -1  
$EndComp
Wire Wire Line
	3650 4350 4400 4350
$Comp
L pspice:CAP C2002
U 1 1 60BE365C
P 3650 4600
F 0 "C2002" H 3828 4646 50  0000 L CNN
F 1 "10uF" H 3828 4555 50  0000 L CNN
F 2 "Capacitor_SMD:CP_Elec_3x5.3" H 3650 4600 50  0001 C CNN
F 3 "~" H 3650 4600 50  0001 C CNN
	1    3650 4600
	1    0    0    -1  
$EndComp
$Comp
L power:GND #PWR02005
U 1 1 60BE40AD
P 3650 4850
F 0 "#PWR02005" H 3650 4600 50  0001 C CNN
F 1 "GND" H 3655 4677 50  0000 C CNN
F 2 "" H 3650 4850 50  0001 C CNN
F 3 "" H 3650 4850 50  0001 C CNN
	1    3650 4850
	1    0    0    -1  
$EndComp
$Comp
L power:GND #PWR02004
U 1 1 60BE4888
P 2850 4100
F 0 "#PWR02004" H 2850 3850 50  0001 C CNN
F 1 "GND" H 2855 3927 50  0000 C CNN
F 2 "" H 2850 4100 50  0001 C CNN
F 3 "" H 2850 4100 50  0001 C CNN
	1    2850 4100
	1    0    0    -1  
$EndComp
$Comp
L pspice:OPAMP U2003
U 1 1 60BE5A2A
P 6350 3050
F 0 "U2003" H 6550 3300 50  0000 L CNN
F 1 "OPAMP" H 6500 3200 50  0000 L CNN
F 2 "Package_TO_SOT_SMD:SOT-23-5" H 6350 3050 50  0001 C CNN
F 3 "~" H 6350 3050 50  0001 C CNN
	1    6350 3050
	1    0    0    -1  
$EndComp
$Comp
L pspice:OPAMP U2004
U 1 1 60BE648F
P 7450 2950
F 0 "U2004" H 7500 3150 50  0000 L CNN
F 1 "OPAMP" H 7500 3100 50  0000 L CNN
F 2 "Package_TO_SOT_SMD:SOT-23-5" H 7450 2950 50  0001 C CNN
F 3 "~" H 7450 2950 50  0001 C CNN
	1    7450 2950
	1    0    0    -1  
$EndComp
Wire Wire Line
	5800 3800 5800 2750
Wire Wire Line
	5800 2750 6250 2750
Connection ~ 5700 3800
Wire Wire Line
	6050 2950 6050 2550
Wire Wire Line
	1550 2550 1550 3600
Wire Wire Line
	750  3600 900  3600
Wire Wire Line
	1250 2000 1250 1800
Wire Wire Line
	1250 1800 1500 1800
Wire Wire Line
	900  2000 1250 2000
Connection ~ 1250 2000
Wire Wire Line
	1250 2000 1300 2000
$Comp
L Device:R_Small_US R2006
U 1 1 60BEB070
P 6700 3150
F 0 "R2006" H 6768 3196 50  0000 L CNN
F 1 "1k" H 6768 3105 50  0000 L CNN
F 2 "Resistor_SMD:R_0201_0603Metric" H 6700 3150 50  0001 C CNN
F 3 "~" H 6700 3150 50  0001 C CNN
	1    6700 3150
	1    0    0    -1  
$EndComp
$Comp
L Device:R_Small_US R2007
U 1 1 60BEBA66
P 6700 3800
F 0 "R2007" H 6768 3846 50  0000 L CNN
F 1 "1k" H 6768 3755 50  0000 L CNN
F 2 "Resistor_SMD:R_0201_0603Metric" H 6700 3800 50  0001 C CNN
F 3 "~" H 6700 3800 50  0001 C CNN
	1    6700 3800
	1    0    0    -1  
$EndComp
$Comp
L power:GND #PWR02009
U 1 1 60BEE0E8
P 6250 3350
F 0 "#PWR02009" H 6250 3100 50  0001 C CNN
F 1 "GND" H 6255 3177 50  0000 C CNN
F 2 "" H 6250 3350 50  0001 C CNN
F 3 "" H 6250 3350 50  0001 C CNN
	1    6250 3350
	1    0    0    -1  
$EndComp
Wire Wire Line
	6050 3150 6050 3600
Wire Wire Line
	6050 3600 6700 3600
Connection ~ 6700 3600
Wire Wire Line
	6700 3600 6700 3700
$Comp
L power:GND #PWR02010
U 1 1 60BF3331
P 6700 3900
F 0 "#PWR02010" H 6700 3650 50  0001 C CNN
F 1 "GND" H 6705 3727 50  0000 C CNN
F 2 "" H 6700 3900 50  0001 C CNN
F 3 "" H 6700 3900 50  0001 C CNN
	1    6700 3900
	1    0    0    -1  
$EndComp
Wire Wire Line
	6700 3250 6700 3600
Wire Wire Line
	6700 3050 6650 3050
Wire Wire Line
	5800 3800 6250 3800
Wire Wire Line
	6250 3800 6250 4200
Wire Wire Line
	6250 4200 6800 4200
Wire Wire Line
	6800 4200 6800 2650
Connection ~ 5800 3800
Wire Wire Line
	6700 3050 7150 3050
Connection ~ 6700 3050
$Comp
L power:GND #PWR02011
U 1 1 60BFA48C
P 7350 3250
F 0 "#PWR02011" H 7350 3000 50  0001 C CNN
F 1 "GND" H 7355 3077 50  0000 C CNN
F 2 "" H 7350 3250 50  0001 C CNN
F 3 "" H 7350 3250 50  0001 C CNN
	1    7350 3250
	1    0    0    -1  
$EndComp
Wire Wire Line
	7150 2850 6900 2850
Wire Wire Line
	6900 2850 6900 2750
Wire Wire Line
	6900 2750 6650 2750
Wire Wire Line
	6350 2750 6250 2750
Connection ~ 6250 2750
$Comp
L Device:R_Small_US R2009
U 1 1 60C03BEE
P 9200 3350
F 0 "R2009" V 8995 3350 50  0000 C CNN
F 1 "100" V 9086 3350 50  0000 C CNN
F 2 "Resistor_SMD:R_0201_0603Metric" H 9200 3350 50  0001 C CNN
F 3 "~" H 9200 3350 50  0001 C CNN
	1    9200 3350
	0    1    1    0   
$EndComp
Wire Wire Line
	7950 2950 7750 2950
Wire Wire Line
	8250 3350 8400 3350
$Comp
L Diode:BZX84Cxx DBZX84C12L2001
U 1 1 60C23EB3
P 8250 3550
F 0 "DBZX84C12L2001" V 8200 3050 50  0000 L CNN
F 1 "DBZX84C1xx" V 8300 3050 50  0000 L CNN
F 2 "Diode_SMD:D_SOT-23_ANK" H 8250 3375 50  0001 C CNN
F 3 "https://diotec.com/tl_files/diotec/files/pdf/datasheets/bzx84c2v4.pdf" H 8250 3550 50  0001 C CNN
	1    8250 3550
	0    1    1    0   
$EndComp
Wire Wire Line
	8250 3400 8250 3350
Connection ~ 8250 3350
Wire Wire Line
	8250 3700 8250 3850
Wire Wire Line
	8250 3850 8400 3850
Wire Wire Line
	8700 3850 8700 3650
$Comp
L power:GND #PWR02013
U 1 1 60C28A38
P 8400 3850
F 0 "#PWR02013" H 8400 3600 50  0001 C CNN
F 1 "GND" H 8405 3677 50  0000 C CNN
F 2 "" H 8400 3850 50  0001 C CNN
F 3 "" H 8400 3850 50  0001 C CNN
	1    8400 3850
	1    0    0    -1  
$EndComp
Connection ~ 8400 3850
Wire Wire Line
	8400 3850 8700 3850
$Comp
L Device:D_Schottky D2001
U 1 1 60C2EB5C
P 1950 2750
F 0 "D2001" H 1950 2533 50  0000 C CNN
F 1 "MBRS1100" H 1950 2624 50  0000 C CNN
F 2 "Diode_SMD:D_0201_0603Metric" H 1950 2750 50  0001 C CNN
F 3 "~" H 1950 2750 50  0001 C CNN
	1    1950 2750
	-1   0    0    1   
$EndComp
$Comp
L Diode:1N914 D2002
U 1 1 60C30037
P 6500 2750
F 0 "D2002" H 6500 2533 50  0000 C CNN
F 1 "1N914" H 6500 2624 50  0000 C CNN
F 2 "Diode_THT:D_DO-35_SOD27_P7.62mm_Horizontal" H 6500 2575 50  0001 C CNN
F 3 "http://www.vishay.com/docs/85622/1n914.pdf" H 6500 2750 50  0001 C CNN
	1    6500 2750
	-1   0    0    1   
$EndComp
$Comp
L Diode:1N914 D2003
U 1 1 60C3170B
P 8100 2950
F 0 "D2003" H 8100 2733 50  0000 C CNN
F 1 "1N914" H 8100 2824 50  0000 C CNN
F 2 "Diode_THT:D_DO-35_SOD27_P7.62mm_Horizontal" H 8100 2775 50  0001 C CNN
F 3 "http://www.vishay.com/docs/85622/1n914.pdf" H 8100 2950 50  0001 C CNN
	1    8100 2950
	-1   0    0    1   
$EndComp
Wire Wire Line
	8250 2950 8250 3350
Connection ~ 900  3600
Wire Wire Line
	1800 3700 2150 3700
Wire Wire Line
	2750 2750 2100 2750
Wire Wire Line
	1250 3600 1550 3600
Connection ~ 1550 3600
Wire Wire Line
	1550 3600 2100 3600
$Comp
L power:GND #PWR02002
U 1 1 60C44782
P 1500 2400
F 0 "#PWR02002" H 1500 2150 50  0001 C CNN
F 1 "GND" H 1505 2227 50  0000 C CNN
F 2 "" H 1500 2400 50  0001 C CNN
F 3 "" H 1500 2400 50  0001 C CNN
	1    1500 2400
	1    0    0    -1  
$EndComp
Connection ~ 3650 4350
Wire Wire Line
	4800 3850 5000 3850
Wire Wire Line
	3500 3000 5450 3000
Wire Wire Line
	5000 3850 5000 3200
Wire Wire Line
	5000 3200 4800 3200
Connection ~ 4800 3200
Wire Wire Line
	4800 3200 4800 3050
Wire Wire Line
	5700 3800 5800 3800
Wire Wire Line
	9000 3350 9100 3350
$Comp
L pspice:OPAMP U2008
U 1 1 60C9DDEA
P 10100 3450
F 0 "U2008" H 10150 3700 50  0000 L CNN
F 1 "OPAMP" H 10150 3600 50  0000 L CNN
F 2 "Package_TO_SOT_SMD:SOT-23-5" H 10100 3450 50  0001 C CNN
F 3 "~" H 10100 3450 50  0001 C CNN
	1    10100 3450
	1    0    0    -1  
$EndComp
Wire Wire Line
	1550 2550 6050 2550
Wire Wire Line
	9800 3550 9650 3550
Wire Wire Line
	9650 3550 9650 2050
Wire Wire Line
	9650 2050 6050 2050
Wire Wire Line
	6050 2050 6050 2550
Connection ~ 6050 2550
$Comp
L power:GND #PWR02018
U 1 1 60CB37C0
P 10000 3750
F 0 "#PWR02018" H 10000 3500 50  0001 C CNN
F 1 "GND" H 10005 3577 50  0000 C CNN
F 2 "" H 10000 3750 50  0001 C CNN
F 3 "" H 10000 3750 50  0001 C CNN
	1    10000 3750
	1    0    0    -1  
$EndComp
$Comp
L pspice:CAP C2007
U 1 1 60CB47E0
P 9400 3600
F 0 "C2007" H 9578 3646 50  0000 L CNN
F 1 "0.1u" H 9578 3555 50  0000 L CNN
F 2 "Capacitor_SMD:CP_Elec_3x5.3" H 9400 3600 50  0001 C CNN
F 3 "~" H 9400 3600 50  0001 C CNN
	1    9400 3600
	1    0    0    -1  
$EndComp
$Comp
L power:GND #PWR02016
U 1 1 60CB4F7F
P 9400 3850
F 0 "#PWR02016" H 9400 3600 50  0001 C CNN
F 1 "GND" H 9405 3677 50  0000 C CNN
F 2 "" H 9400 3850 50  0001 C CNN
F 3 "" H 9400 3850 50  0001 C CNN
	1    9400 3850
	1    0    0    -1  
$EndComp
Wire Wire Line
	9300 3350 9350 3350
Connection ~ 9400 3350
Wire Wire Line
	9400 3350 9800 3350
Wire Wire Line
	9350 3350 9350 3250
Wire Wire Line
	9350 3250 9550 3250
Wire Wire Line
	9550 3250 9550 3150
Wire Wire Line
	9550 3150 10000 3150
Connection ~ 9350 3350
Wire Wire Line
	9350 3350 9400 3350
Wire Wire Line
	10400 3450 10600 3450
Text GLabel 10600 3450 2    50   Input ~ 0
5V
Wire Wire Line
	7350 2650 6800 2650
$Comp
L PowerCircuitry-rescue:ADP1613ARMZ-R7-ADP1613ARMZ-R7 IC2001
U 1 1 60BBE17D
P 3700 3750
F 0 "IC2001" H 4250 4015 50  0000 C CNN
F 1 "ADP1613ARMZ-R7" H 4250 3924 50  0000 C CNN
F 2 "SOP65P490X110-8N" H 4650 3850 50  0001 L CNN
F 3 "https://datasheet.lcsc.com/szlcsc/Analog-Devices-ADI-ADP1613ARMZ-R7_C132279.pdf" H 4650 3750 50  0001 L CNN
F 4 "Analog Devices ADP1613ARMZ-R7, Step Up DC-DC Converter, 2.5A, Adjustable, 5.5  20 V, 8-Pin MSOP" H 4650 3650 50  0001 L CNN "Description"
F 5 "1.1" H 4650 3550 50  0001 L CNN "Height"
F 6 "Analog Devices" H 4650 3450 50  0001 L CNN "Manufacturer_Name"
F 7 "ADP1613ARMZ-R7" H 4650 3350 50  0001 L CNN "Manufacturer_Part_Number"
F 8 "584-ADP1613ARMZ-R7" H 4650 3250 50  0001 L CNN "Mouser Part Number"
F 9 "https://www.mouser.co.uk/ProductDetail/Analog-Devices/ADP1613ARMZ-R7?qs=WIvQP4zGanhDtCwLTFW%252BRw%3D%3D" H 4650 3150 50  0001 L CNN "Mouser Price/Stock"
F 10 "ADP1613ARMZ-R7" H 4650 3050 50  0001 L CNN "Arrow Part Number"
F 11 "https://www.arrow.com/en/products/adp1613armz-r7/analog-devices" H 4650 2950 50  0001 L CNN "Arrow Price/Stock"
	1    3700 3750
	1    0    0    -1  
$EndComp
$EndSCHEMATC
